{
    "intents": [
      {
        "tag": "greeting",
        "patterns": [
          "Hi",
          "Hey",
          "How are you",
          "Is anyone there?",
          "Hello",
          "Good day"
        ],
        "responses": [
          "Hey :-)",
          "Hello, thanks for visiting",
          "Hi there, what can I do for you?",
          "Hi there, how can I help?"
        ]
      },
      {
        "tag": "menu_meat",
        "patterns": [
            "What kind of meat dishes do you have?",
            "Can you recommend a good meat dish?",
            "I'm in the mood for something meaty.",
            "What meat dishes do you recommend?"
        ],
        "responses": [
            "Our meat menu includes steak, beef burgers, and lamb chops.",
            "If you're in the mood for something meaty, we recommend our steak or lamb chops.",
            "You might enjoy our beef burger or our lamb chops.",
            "Our meat menu has a variety of options, including steak, beef burgers, and lamb chops."
        ]
    },
    
      {
        "tag": "goodbye",
        "patterns": ["Bye", "See you later", "Goodbye"],
        "responses": [
          "See you later, thanks for visiting",
          "Have a nice day",
          "Bye! Come back again soon."
        ]
      },
      {
        "tag": "thanks",
        "patterns": ["Thanks", "Thank you", "That's helpful", "Thank's a lot!"],
        "responses": ["Happy to help!", "Any time!", "My pleasure"]
      },
      {
        "tag": "payments",
        "patterns": [
          "Do you take credit cards?",
          "Do you accept Mastercard?",
          "Can I pay with Paypal?",
          "Are you cash only?"
        ],
        "responses": [
          "We accept VISA, Mastercard and Paypal",
          "We accept most major credit cards, and Paypal"
        ]
      },
      {
        "tag": "delivery",
        "patterns": [
          "How long does delivery take?",
          "How long does shipping take?",
          "When do I get my delivery?"
        ],
        "responses": [
          "Delivery takes 2-4 days",
          "Shipping takes 2-4 days"
        ]
      },
      {
        "tag": "funny",
        "patterns": [
          "Tell me a joke!",
          "Tell me something funny!",
          "Do you know a joke?"
        ],
        "responses": [
          "Why did the hipster burn his mouth? He drank the coffee before it was cool.",
          "What did the buffalo say when his son left for college? Bison."
        ]
      },
      {
        "tag": "delete_topic",
        "patterns": [
          "Delete topic",
          "Remove topic!",
          "Delete Tag"
        ],
        "responses": [
          "Which topic would you like to delete?",
          "Please tell me the name of the topic you want to delete"
        ]
      }
    ]
  }